Parameter sampling and model calibration • SWATplusR
…
Random sampling with runif()

The most basic way to draw random parameter samples is to use the base R function runif(). With runif() you can create a uniformly distributed vector. To draw a specific number of parameter sets with runif() you have to create a vector with that number of random values for each parameter and transform them to their parameter ranges. Below you find a simple approach to create a table of parameter combinations using a map*() function from the functional programming package purrr. Even if you do not fully understand what the map_df() and the code below does you can use this as a recipe for drawing random uniform samples. This approach should work in your practical cases as well.

n_sample <- 250
par_runif <- map_df(par_bound, ~ runif(n_sample, .x[1], .x[2]))
par_runif
#> # A tibble: 250 x 7
#>    `cn2.hru | change ~ `lat_ttime.hru | ch~ `lat_len.hru | ch~ `k.sol | change ~
#>                  <dbl>                <dbl>              <dbl>             <dbl>
#>  1                7.30                32.9                52.1            -49.6 
#>  2              -12.6                 20.1                52.0             28.5 
#>  3               -9.43                46.2                96.0             30.3 
#>  4               -2.93                20.6                12.3             45.8 
#>  5                8.51                10.0                20.5            -20.8 
#>  6               -6.99                28.4                35.9             -7.74
#>  7               -3.27                28.0                10.2             12.0 
#>  8               -2.00                 3.00               36.3             17.4 
#>  9              -14.9                 40.6                20.1            -18.5 
#> 10              -11.6                 46.4                39.6              1.30
#> # ... with 240 more rows, and 3 more variables:
#> #   awc.sol | change = pctchg <dbl>, esco.hru | change = absval <dbl>,
#> #   epco.hru | change = absval <dbl>

LHS sampling with randomLHS()

In a very similar way as the random sampling you can draw LHS samples by using the function randomLHS() from the lhs package. This is my preferred way to sample parameter combinations, as the parameter combinations are better distributed over the parameter space compared to random sampling. Again we can use the defined parameter boundaries to define the LHS parameter set. Again, the code below can be considered as a recipe to perform a sampling that you can simply use in other modeling cases as well.

n_sample <- 250
n_par <- ncol(par_bound)

par_lhs <- randomLHS(n = n_sample, k = n_par) %>% # Perform sampling
  as_tibble(., .name_repair = 'minimal') %>% # Convert to a tibble
  set_names(names(par_bound)) %>% # Assign the parameter names with purrr
  map2_df(., par_bound, ~ (.x * (.y[2] - .y[1]) + .y[1])) # Scale parameter ranges

par_lhs
#> # A tibble: 250 x 7
#>    `cn2.hru | change ~ `lat_ttime.hru | ch~ `lat_len.hru | ch~ `k.sol | change ~
#>                  <dbl>                <dbl>              <dbl>             <dbl>
#>  1              -10.1                 47.0                40.9             -5.56
#>  2               -5.89                17.7                77.3             26.1 
#>  3                9.49                40.3                30.5             -9.59
#>  4                4.83                 6.02               85.2             34.5 
#>  5                5.34                40.5                26.8             28.8 
#>  6                8.21                 9.73               89.8             32.6 
#>  7                6.28                 8.48               95.7            -21.1 
#>  8                6.38                 2.03               41.6              5.09
#>  9                1.48                 4.72               63.9             12.5 
#> 10              -13.5                  3.44               29.7            -10.2 
#> # ... with 240 more rows, and 3 more variables:
#> #   awc.sol | change = pctchg <dbl>, esco.hru | change = absval <dbl>,
#> #   epco.hru | change = absval <dbl>
…
Using the recipe from above we draw an LHS sample with 100 parameter combinations. The number here can be lower or higher. I would base that decision on the run time of your model setup and how many simulations you can afford. If the number is too low it may be difficult to see any clear patterns.

n_sample <- 100
n_par <- ncol(par_bound)

par_et <- randomLHS(n = n_sample, k = n_par) %>% # Perform sampling
  as_tibble(., .name_repair = 'minimal') %>% # Convert to a tibble
  set_names(names(par_bound)) %>% # Assign the parameter names with purrr
  map2_df(., par_bound, ~ (.x * (.y[2] - .y[1]) + .y[1])) # Scale parameter ranges

par_et
#> # A tibble: 100 x 5
#>    `esco.hru | change~ `epco.hru | change~ `cn2.hru | change~ `awc.sol | change~
#>                  <dbl>               <dbl>              <dbl>              <dbl>
#>  1               0.968               0.696              -8.07              24.8 
#>  2               0.923               0.809             -16.3               46.1 
#>  3               0.160               0.823              -3.96             -16.1 
#>  4               0.102               0.231              -7.62             -12.0 
#>  5               0.523               0.346               5.53              21.6 
#>  6               0.845               0.372             -15.5               39.5 
#>  7               0.232               0.882              -5.58              38.2 
#>  8               0.684               0.985              -8.27             -29.3 
#>  9               0.446               0.480               8.82              -1.17
#> 10               0.222               0.141             -12.5               27.2 
#> # ... with 90 more rows, and 1 more variable: perco.hru | change = absval <dbl>
…
