Getting started with SWATplusR • SWATplusR
…
In the case of a SWAT project load_demo() saves the defined SWAT project in the file path that was defined with path = demo_path and returns the final demo project path as a character string in R. I assigned these paths to the variables path_plus and path_2012 to use them later in the model runs.

Observation data

SWATdata also provides daily discharge records for the outlet of the demo catchment (Gauge J of LREW) for the time period 1968-01-01 until 2012-12-31. Observation data are useful for the model evaluation. These date will be used in several examples with the SWAT demo projects. You can load the observation data again using the function load_demo(). To access the observation data set you have to define dataset = 'observation'. The other input arguments are not required in this case as the observation data are the same for all demos. When loading the observation data set load_demo() returns a data frame with a date column and a column for the mean daily discharge at that date. In the code below the observation data frame is assigned to the variable q_obs.

q_obs <- load_demo(dataset = 'observation')

q_obs

#> # A tibble: 16,437 x 2
#>    date       discharge
#>    <date>         <dbl>
#>  1 1968-01-01      0.16
#>  2 1968-01-02      0.57
#>  3 1968-01-03      0.61
#>  4 1968-01-04      0.37
#>  5 1968-01-05      0.25
#>  6 1968-01-06      0.2 
#>  7 1968-01-07      0.21
#>  8 1968-01-08      0.22
#>  9 1968-01-09      0.18
#> 10 1968-01-10      0.34
#> # ... with 16,427 more rows
…
The two examples for our first SWAT simulations use very basic output definitions. The output definition in run_swat*() can be more complex and more comprehensive. A more detailed insight with further examples is provided in an article that focuses on simulation output definition. I recommend to go the examples in this article as well, as your model simulations should very likely return more than just the discharge at your catchment outlet (The article is currently in preparation and will be online soon. Please be patient in the meantime).

Exploring the simulation outputs

SWATplusR aims to return SWAT simulations in a tidy format. The date structure of the simulation results is different for single simulation and many simulations with different parameter sets. Yet, the general structure is the same for all simulation outputs returned in R. Simulation results are always arranged in tibbles (Müller and Wickham, 2019). In the run_swat*() default setting (add_date = TRUE) the first column of the simulation results is always the date column followed by the columns for the output variables. If a single simulation run was performed without parameter changes (parameter = NULL so the default setting) a single tibble with the simulation outputs for that run is returned. When performing simulations with one or many different parameter sets a list of tibbles is returned that I explain below.

If we have a look at the outputs of all three simulations we see that they all have the same general structure. The first column is a date column which is followed by the defined output variables. In the case of the SWAT+ simulation outputs q_sim_plus the single output variable that we defined is called flo_out, so the name of the variable as it is defined in the .txt output file.

q_sim_plus
#> # A tibble: 3,653 x 2
#>    date       flo_out
#>    <date>       <dbl>
#>  1 2003-01-01 0.00412
#>  2 2003-01-02 0      
#>  3 2003-01-03 0      
#>  4 2003-01-04 0      
#>  5 2003-01-05 0      
#>  6 2003-01-06 0      
#>  7 2003-01-07 0      
#>  8 2003-01-08 0      
#>  9 2003-01-09 0      
#> 10 2003-01-10 0      
#> # ... with 3,643 more rows

For the SWAT2012 model setup we defined to return the discharges of all three channels in the model setup. In the simulation outputs we can see now that a suffix number was added to the variable names. These numbers correspond to the unit IDs in the output table. Thus, you can directly relate the outputs in R to the respective units in a model setup.

q_sim_2012
#> # A tibble: 3,653 x 4
#>    date       FLOW_OUT_1 FLOW_OUT_2 FLOW_OUT_3
#>    <date>          <dbl>      <dbl>      <dbl>
#>  1 2003-01-01      0.174     0.103       0.413
#>  2 2003-01-02      0.154     0.0956      0.377
#>  3 2003-01-03      0.150     0.0935      0.369
#>  4 2003-01-04      0.148     0.0921      0.363
#>  5 2003-01-05      0.146     0.0912      0.359
#>  6 2003-01-06      0.145     0.0906      0.357
#>  7 2003-01-07      0.144     0.0901      0.355
#>  8 2003-01-08      0.144     0.0897      0.354
#>  9 2003-01-09      0.143     0.0894      0.353
#> 10 2003-01-10      0.143     0.0890      0.352
#> # ... with 3,643 more rows

As mentioned above, the only difference between q_sim_2012 and q_sim_2012_2 is the naming of the output variables. We defined that the should now be called q instead of FLOW_OUT. Although the name has changed the suffix values are the same in this case and is added automatically by define_output().

q_sim_2012_2
#> # A tibble: 3,653 x 4
#>    date         q_1    q_2   q_3
#>    <date>     <dbl>  <dbl> <dbl>
#>  1 2003-01-01 0.174 0.103  0.413
#>  2 2003-01-02 0.154 0.0956 0.377
#>  3 2003-01-03 0.150 0.0935 0.369
#>  4 2003-01-04 0.148 0.0921 0.363
#>  5 2003-01-05 0.146 0.0912 0.359
#>  6 2003-01-06 0.145 0.0906 0.357
#>  7 2003-01-07 0.144 0.0901 0.355
#>  8 2003-01-08 0.144 0.0897 0.354
#>  9 2003-01-09 0.143 0.0894 0.353
#> 10 2003-01-10 0.143 0.0890 0.352
#> # ... with 3,643 more rows
…
The second part of the simulation outputs provides the simulation results for the defined output variables in a tibble. The structure of this table is the same as the one of the outputs where no parameter changes were implemented. If the parameter changes should have an effect on the simulation of flo_out, the simulated values simulated values stored in simulation should of course be different.

q_sim1$simulation
#> # A tibble: 3,653 x 2
#>    date       flo_out
#>    <date>       <dbl>
#>  1 2003-01-01 0.00185
#>  2 2003-01-02 0      
#>  3 2003-01-03 0      
#>  4 2003-01-04 0      
#>  5 2003-01-05 0      
#>  6 2003-01-06 0      
#>  7 2003-01-07 0      
#>  8 2003-01-08 0      
#>  9 2003-01-09 0      
#> 10 2003-01-10 0      
#> # ... with 3,643 more rows
…
The major difference in the output list is given in the simulation outputs. simulation is not a single table as it was the case for the simulations with a single parameter combination. In the case of multiple simulations with more than one parameter combination a list of tibbles is generated. As we can see for q_simn$simulation the output is organized in three tables each table provides the simulation runs for each output variable that we defined. Each table in this case has a date column as its first column followed by the columns run_1 until run_5 where each run provides the simulation outputs for each of the 5 parameter combinations.

q_simn$simulation
#> $q_cha
#> # A tibble: 3,653 x 6
#>    date         run_1   run_2   run_3   run_4   run_5
#>    <date>       <dbl>   <dbl>   <dbl>   <dbl>   <dbl>
#>  1 2003-01-01 0.00194 0.00187 0.00231 0.00294 0.0198 
#>  2 2003-01-02 0       0       0       0       0.00237
#>  3 2003-01-03 0       0       0       0       0      
#>  4 2003-01-04 0       0       0       0       0      
#>  5 2003-01-05 0       0       0       0       0      
#>  6 2003-01-06 0       0       0       0       0      
#>  7 2003-01-07 0       0       0       0       0      
#>  8 2003-01-08 0       0       0       0       0      
#>  9 2003-01-09 0       0       0       0       0      
#> 10 2003-01-10 0       0       0       0       0      
#> # ... with 3,643 more rows
#> 
#> $q_sur
#> # A tibble: 3,653 x 6
#>    date       run_1 run_2 run_3 run_4 run_5
#>    <date>     <dbl> <dbl> <dbl> <dbl> <dbl>
#>  1 2003-01-01     0     0     0 0.003 0.069
#>  2 2003-01-02     0     0     0 0     0.011
#>  3 2003-01-03     0     0     0 0     0.002
#>  4 2003-01-04     0     0     0 0     0    
#>  5 2003-01-05     0     0     0 0     0    
#>  6 2003-01-06     0     0     0 0     0    
#>  7 2003-01-07     0     0     0 0     0    
#>  8 2003-01-08     0     0     0 0     0    
#>  9 2003-01-09     0     0     0 0     0    
#> 10 2003-01-10     0     0     0 0     0    
#> # ... with 3,643 more rows
#> 
#> $q_lat
#> # A tibble: 3,653 x 6
#>    date       run_1 run_2 run_3 run_4 run_5
#>    <date>     <dbl> <dbl> <dbl> <dbl> <dbl>
#>  1 2003-01-01 0.004 0.004 0.006 0.005 0.005
#>  2 2003-01-02 0.004 0.003 0.005 0.005 0.004
#>  3 2003-01-03 0.004 0.003 0.004 0.005 0.003
#>  4 2003-01-04 0.004 0.003 0.004 0.005 0.003
#>  5 2003-01-05 0.004 0.002 0.003 0.005 0.003
#>  6 2003-01-06 0.003 0.002 0.003 0.005 0.002
#>  7 2003-01-07 0.003 0.002 0.003 0.005 0.002
#>  8 2003-01-08 0.003 0.002 0.003 0.005 0.002
#>  9 2003-01-09 0.003 0.002 0.003 0.004 0.002
#> 10 2003-01-10 0.003 0.002 0.003 0.004 0.002
#> # ... with 3,643 more rows
…
sim_set_date <- run_swatplus(project_path = path_plus,
                             output = define_output('channel_sd', 'flo_out', 1),
                             start_date = 20000101,
                             end_date = 20051231,
                             years_skip = 3)
#> Building 1 thread in 'Define:/your/path/swatplus_demo/.model_run': 
#>  Completed 1 thread in 0S                                                   
#> Performing 1 simulation on 1 core: 
#>  Completed 1 simulation in 2S

When we have a look at the simulated time series we can see that it starts in the year 2003 and holds data for 3 years.

sim_set_date
#> # A tibble: 1,096 x 2
#>    date       flo_out
#>    <date>       <dbl>
#>  1 2003-01-01 0.00412
#>  2 2003-01-02 0      
#>  3 2003-01-03 0      
#>  4 2003-01-04 0      
#>  5 2003-01-05 0      
#>  6 2003-01-06 0      
#>  7 2003-01-07 0      
#>  8 2003-01-08 0      
#>  9 2003-01-09 0      
#> 10 2003-01-10 0      
#> # ... with 1,086 more rows
…
sim_stprint <- run_swatplus(project_path = path_plus,
                            output = define_output('channel_sd', 'flo_out', 1),
                            start_date = 20001101,
                            end_date = 20051031,
                            start_date_print = 20031101)
#> Building 1 thread in 'Define:/your/path/swatplus_demo/.model_run': 
#>  Completed 1 thread in 0S                                                   
#> Performing 1 simulation on 1 core: 
#>  Completed 1 simulation in 2S

sim_yskip
#> # A tibble: 1,035 x 2
#>    date       flo_out
#>    <date>       <dbl>
#>  1 2003-01-01 0.00414
#>  2 2003-01-02 0      
#>  3 2003-01-03 0      
#>  4 2003-01-04 0      
#>  5 2003-01-05 0      
#>  6 2003-01-06 0      
#>  7 2003-01-07 0      
#>  8 2003-01-08 0      
#>  9 2003-01-09 0      
#> 10 2003-01-10 0      
#> # ... with 1,025 more rows

sim_stprint
#> # A tibble: 731 x 2
#>    date       flo_out
#>    <date>       <dbl>
#>  1 2003-11-01 0      
#>  2 2003-11-02 0      
#>  3 2003-11-03 0      
#>  4 2003-11-04 0.00158
#>  5 2003-11-05 0      
#>  6 2003-11-06 0      
#>  7 2003-11-07 0      
#>  8 2003-11-08 0      
#>  9 2003-11-09 0      
#> 10 2003-11-10 0      
#> # ... with 721 more rows
…
